syscalls.c:42:6:ITM_SendChar	0	static
syscalls.c:71:6:initialise_monitor_handles	0	static
syscalls.c:75:5:_getpid	0	static
syscalls.c:80:5:_kill	8	static
syscalls.c:86:6:_exit	8	static
syscalls.c:92:27:_read	16	static
syscalls.c:104:27:_write	16	static
syscalls.c:115:5:_close	0	static
syscalls.c:121:5:_fstat	0	static
syscalls.c:127:5:_isatty	0	static
syscalls.c:132:5:_lseek	0	static
syscalls.c:137:5:_open	0	static
syscalls.c:143:5:_wait	8	static
syscalls.c:149:5:_unlink	8	static
syscalls.c:155:5:_times	0	static
syscalls.c:160:5:_stat	0	static
syscalls.c:166:5:_link	8	static
syscalls.c:172:5:_fork	8	static
syscalls.c:178:5:_execve	8	static
